EESchema Schematic File Version 4
EELAYER 30 0
EELAYER END
$Descr A4 11693 8268
encoding utf-8
Sheet 1 1
Title "Single TOF VL530X board with status LED"
Date "2020-12-14"
Rev "1"
Comp "BulbotLegacy"
Comment1 "VL530X"
Comment2 "Author: Antoine Marchal"
Comment3 ""
Comment4 ""
$EndDescr
$Comp
L Sensor_Distance:VL53L1CXV0FY1 U3
U 1 1 5FD9CF2A
P 7700 4100
F 0 "U3" H 8030 4146 50  0000 L CNN
F 1 "VL53L1CXV0FY1" H 8030 4055 50  0000 L CNN
F 2 "Sensor_Distance:ST_VL53L1x" H 8375 3550 50  0001 C CNN
F 3 "https://www.st.com/resource/en/datasheet/vl53l1x.pdf" H 7800 4100 50  0001 C CNN
	1    7700 4100
	1    0    0    -1  
$EndComp
$Comp
L Regulator_Linear:LP2985-3.0 U2
U 1 1 5FD9F638
P 5750 1800
F 0 "U2" H 5750 2142 50  0000 C CNN
F 1 "LP2985-3.0" H 5750 2051 50  0000 C CNN
F 2 "Package_TO_SOT_SMD:SOT-23-5_HandSoldering" H 5750 2125 50  0001 C CNN
F 3 "http://www.ti.com/lit/ds/symlink/lp2985.pdf" H 5750 1800 50  0001 C CNN
	1    5750 1800
	1    0    0    -1  
$EndComp
$Comp
L SingleTOFboard-rescue:C1206C225K5RACTU-C1206C225K5RACTU C2
U 1 1 5FDA311F
P 7450 1700
F 0 "C2" V 7654 1828 50  0000 L CNN
F 1 "2,2 uF" V 7745 1828 50  0000 L CNN
F 2 "Resistor_SMD:R_0805_2012Metric_Pad1.20x1.40mm_HandSolder" H 7800 1750 50  0001 L CNN
F 3 "" H 7800 1650 50  0001 L CNN
F 4 "CAPACITOR, 1206 2.2uF +/-10% 50V" H 7800 1550 50  0001 L CNN "Description"
F 5 "" H 7800 1450 50  0001 L CNN "Height"
F 6 "Kemet" H 7800 1350 50  0001 L CNN "Manufacturer_Name"
F 7 "C1206C225K5RACTU" H 7800 1250 50  0001 L CNN "Manufacturer_Part_Number"
F 8 "C1206C225K5RACTU" H 7800 1150 50  0001 L CNN "Arrow Part Number"
F 9 "https://www.arrow.com/en/products/c1206c225k5ractu/kemet-corporation" H 7800 1050 50  0001 L CNN "Arrow Price/Stock"
F 10 "80-C1206C225K5R" H 7800 950 50  0001 L CNN "Mouser Part Number"
F 11 "https://www.mouser.co.uk/ProductDetail/KEMET/C1206C225K5RACTU?qs=STjISULpmtZpfJMIEM1zeA%3D%3D" H 7800 850 50  0001 L CNN "Mouser Price/Stock"
	1    7450 1700
	0    1    1    0   
$EndComp
$Comp
L power:GND #PWR04
U 1 1 5FDB0942
P 4800 3200
F 0 "#PWR04" H 4800 2950 50  0001 C CNN
F 1 "GND" H 4805 3027 50  0000 C CNN
F 2 "" H 4800 3200 50  0001 C CNN
F 3 "" H 4800 3200 50  0001 C CNN
	1    4800 3200
	-1   0    0    1   
$EndComp
$Comp
L power:GND #PWR09
U 1 1 5FDB1341
P 7700 5100
F 0 "#PWR09" H 7700 4850 50  0001 C CNN
F 1 "GND" H 7705 4927 50  0000 C CNN
F 2 "" H 7700 5100 50  0001 C CNN
F 3 "" H 7700 5100 50  0001 C CNN
	1    7700 5100
	1    0    0    -1  
$EndComp
$Comp
L power:GND #PWR07
U 1 1 5FDB218E
P 5750 2400
F 0 "#PWR07" H 5750 2150 50  0001 C CNN
F 1 "GND" H 5755 2227 50  0000 C CNN
F 2 "" H 5750 2400 50  0001 C CNN
F 3 "" H 5750 2400 50  0001 C CNN
	1    5750 2400
	1    0    0    -1  
$EndComp
$Comp
L power:VCC #PWR03
U 1 1 5FDB2C67
P 4250 5500
F 0 "#PWR03" H 4250 5350 50  0001 C CNN
F 1 "VCC" H 4265 5673 50  0000 C CNN
F 2 "" H 4250 5500 50  0001 C CNN
F 3 "" H 4250 5500 50  0001 C CNN
	1    4250 5500
	-1   0    0    1   
$EndComp
$Comp
L power:VCC #PWR06
U 1 1 5FDB45BE
P 3800 1500
F 0 "#PWR06" H 3800 1350 50  0001 C CNN
F 1 "VCC" H 3815 1673 50  0000 C CNN
F 2 "" H 3800 1500 50  0001 C CNN
F 3 "" H 3800 1500 50  0001 C CNN
	1    3800 1500
	1    0    0    -1  
$EndComp
$Comp
L power:VDD #PWR010
U 1 1 5FDB6091
P 8500 1650
F 0 "#PWR010" H 8500 1500 50  0001 C CNN
F 1 "VDD" H 8515 1823 50  0000 C CNN
F 2 "" H 8500 1650 50  0001 C CNN
F 3 "" H 8500 1650 50  0001 C CNN
	1    8500 1650
	1    0    0    -1  
$EndComp
$Comp
L power:VDD #PWR08
U 1 1 5FDB690A
P 7700 3200
F 0 "#PWR08" H 7700 3050 50  0001 C CNN
F 1 "VDD" H 7715 3373 50  0000 C CNN
F 2 "" H 7700 3200 50  0001 C CNN
F 3 "" H 7700 3200 50  0001 C CNN
	1    7700 3200
	1    0    0    -1  
$EndComp
$Comp
L Device:C C1
U 1 1 5FDB98CE
P 4500 1850
F 0 "C1" H 4615 1896 50  0000 L CNN
F 1 "1 uF" H 4615 1805 50  0000 L CNN
F 2 "Resistor_SMD:R_0805_2012Metric_Pad1.20x1.40mm_HandSolder" H 4538 1700 50  0001 C CNN
F 3 "~" H 4500 1850 50  0001 C CNN
	1    4500 1850
	1    0    0    -1  
$EndComp
$Comp
L Device:R R2
U 1 1 5FDBED78
P 6900 4650
F 0 "R2" V 6693 4650 50  0000 C CNN
F 1 "1k" V 6784 4650 50  0000 C CNN
F 2 "Resistor_SMD:R_0805_2012Metric_Pad1.20x1.40mm_HandSolder" V 6830 4650 50  0001 C CNN
F 3 "~" H 6900 4650 50  0001 C CNN
	1    6900 4650
	0    1    1    0   
$EndComp
$Comp
L Device:R R1
U 1 1 5FDC0700
P 6900 3800
F 0 "R1" V 6693 3800 50  0000 C CNN
F 1 "1k" V 6784 3800 50  0000 C CNN
F 2 "Resistor_SMD:R_0805_2012Metric_Pad1.20x1.40mm_HandSolder" V 6830 3800 50  0001 C CNN
F 3 "~" H 6900 3800 50  0001 C CNN
	1    6900 3800
	0    1    1    0   
$EndComp
Wire Wire Line
	4800 3200 4800 3700
Wire Wire Line
	3800 1500 3800 1700
Connection ~ 4500 1700
Wire Wire Line
	4500 1700 5200 1700
Wire Wire Line
	4500 2000 4500 2400
Wire Wire Line
	4500 2400 5750 2400
Connection ~ 5750 2400
Wire Wire Line
	8500 1700 8500 1650
Wire Wire Line
	5200 1700 5200 1800
Wire Wire Line
	5200 1800 5350 1800
Connection ~ 5200 1700
Wire Wire Line
	5200 1700 5350 1700
Wire Wire Line
	5750 2100 5750 2400
Wire Wire Line
	7700 3200 7700 3350
Wire Wire Line
	7700 3350 7800 3350
Wire Wire Line
	7800 3350 7800 3500
Connection ~ 7700 3350
Wire Wire Line
	7700 3350 7700 3500
Wire Wire Line
	7700 4700 7700 4850
Wire Wire Line
	7800 4700 7800 4850
Wire Wire Line
	7800 4850 7700 4850
Connection ~ 7700 4850
Wire Wire Line
	7700 4850 7700 5100
Wire Wire Line
	4700 4800 4400 4800
Wire Wire Line
	4400 4800 4400 4300
$Comp
L power:VCC #PWR01
U 1 1 5FDD4EA8
P 3100 1750
F 0 "#PWR01" H 3100 1600 50  0001 C CNN
F 1 "VCC" H 3115 1923 50  0000 C CNN
F 2 "" H 3100 1750 50  0001 C CNN
F 3 "" H 3100 1750 50  0001 C CNN
	1    3100 1750
	1    0    0    -1  
$EndComp
$Comp
L power:GND #PWR02
U 1 1 5FDD5512
P 3100 1850
F 0 "#PWR02" H 3100 1600 50  0001 C CNN
F 1 "GND" H 3105 1677 50  0000 C CNN
F 2 "" H 3100 1850 50  0001 C CNN
F 3 "" H 3100 1850 50  0001 C CNN
	1    3100 1850
	1    0    0    -1  
$EndComp
Text Label 1900 2050 0    50   ~ 0
SCL
Text Label 1900 1950 0    50   ~ 0
SDA
Text Label 6600 4650 2    50   ~ 0
Xshut
Text Label 6550 3800 2    50   ~ 0
GPIO
Text Label 3400 4200 2    50   ~ 0
SCL
Text Label 3400 4100 2    50   ~ 0
SDA
Wire Wire Line
	3800 1700 4500 1700
NoConn ~ 6150 1800
Wire Wire Line
	7300 3900 7150 3900
Wire Wire Line
	7300 4400 7200 4400
$Comp
L Device:R R5
U 1 1 5FDD3F83
P 4700 5150
F 0 "R5" H 4770 5196 50  0000 L CNN
F 1 "200k" H 4770 5105 50  0000 L CNN
F 2 "Resistor_SMD:R_0805_2012Metric_Pad1.20x1.40mm_HandSolder" V 4630 5150 50  0001 C CNN
F 3 "~" H 4700 5150 50  0001 C CNN
	1    4700 5150
	-1   0    0    1   
$EndComp
$Comp
L Device:R R4
U 1 1 5FDD626E
P 5600 4850
F 0 "R4" H 5670 4896 50  0000 L CNN
F 1 "1k" H 5670 4805 50  0000 L CNN
F 2 "Resistor_SMD:R_0805_2012Metric_Pad1.20x1.40mm_HandSolder" V 5530 4850 50  0001 C CNN
F 3 "~" H 5600 4850 50  0001 C CNN
	1    5600 4850
	-1   0    0    1   
$EndComp
$Comp
L Device:R R3
U 1 1 5FDD6995
P 5950 4850
F 0 "R3" H 6020 4896 50  0000 L CNN
F 1 "1k" H 6020 4805 50  0000 L CNN
F 2 "Resistor_SMD:R_0805_2012Metric_Pad1.20x1.40mm_HandSolder" V 5880 4850 50  0001 C CNN
F 3 "~" H 5950 4850 50  0001 C CNN
	1    5950 4850
	-1   0    0    1   
$EndComp
Wire Wire Line
	4700 5000 4700 4800
Wire Wire Line
	4700 5300 4250 5300
Wire Wire Line
	4250 5300 4250 5500
Wire Wire Line
	5200 4200 5600 4200
Wire Wire Line
	3400 4100 3800 4100
Wire Wire Line
	3400 4200 4100 4200
Wire Wire Line
	5950 4100 5950 4700
Connection ~ 5950 4100
Wire Wire Line
	5600 4700 5600 4200
Connection ~ 5600 4200
$Comp
L Device:R R7
U 1 1 5FE0FF4A
P 4100 4850
F 0 "R7" H 4170 4896 50  0000 L CNN
F 1 "1k" H 4170 4805 50  0000 L CNN
F 2 "Resistor_SMD:R_0805_2012Metric_Pad1.20x1.40mm_HandSolder" V 4030 4850 50  0001 C CNN
F 3 "~" H 4100 4850 50  0001 C CNN
	1    4100 4850
	-1   0    0    1   
$EndComp
$Comp
L Device:R R6
U 1 1 5FE10464
P 3800 4850
F 0 "R6" H 3870 4896 50  0000 L CNN
F 1 "1k" H 3870 4805 50  0000 L CNN
F 2 "Resistor_SMD:R_0805_2012Metric_Pad1.20x1.40mm_HandSolder" V 3730 4850 50  0001 C CNN
F 3 "~" H 3800 4850 50  0001 C CNN
	1    3800 4850
	-1   0    0    1   
$EndComp
Wire Wire Line
	4100 4700 4100 4200
Connection ~ 4100 4200
Wire Wire Line
	4100 4200 4400 4200
Wire Wire Line
	3800 4700 3800 4100
Connection ~ 3800 4100
Wire Wire Line
	3800 4100 4400 4100
Wire Wire Line
	4100 5000 4100 5300
Wire Wire Line
	4100 5300 4250 5300
Connection ~ 4250 5300
Wire Wire Line
	3800 5000 3800 5300
Wire Wire Line
	3800 5300 4100 5300
Connection ~ 4100 5300
$Comp
L Interface:PCA9306DC U1
U 1 1 5FE16787
P 4800 4200
F 0 "U1" H 4800 3611 50  0000 C CNN
F 1 "PCA9306DC" H 4800 3520 50  0000 C CNN
F 2 "Package_SO:SSOP-8_2.95x2.8mm_P0.65mm" H 4800 3750 50  0001 C CNN
F 3 "https://www.nxp.com/docs/en/data-sheet/PCA9306.pdf" H 4500 4650 50  0001 C CNN
	1    4800 4200
	-1   0    0    1   
$EndComp
$Comp
L SingleTOFboard-rescue:specificAMA_Busi2C-Connector J3
U 1 1 5FE3F0C1
P 1300 3450
F 0 "J3" H 1100 4100 50  0000 C CNN
F 1 "specificAMA_Busi2C" H 1100 4000 50  0000 C CNN
F 2 "Connector_PinHeader_1.27mm:PinHeader_1x04_P1.27mm_Vertical" H 1300 3400 50  0001 C CNN
F 3 "" H 1300 3400 50  0001 C CNN
	1    1300 3450
	1    0    0    -1  
$EndComp
$Comp
L SingleTOFboard-rescue:specificAMA_Busi2C-Connector J4
U 1 1 5FE3FCDB
P 1300 4800
F 0 "J4" H 1150 5450 50  0000 C CNN
F 1 "specificAMA_Busi2C" H 1150 5350 50  0000 C CNN
F 2 "Connector_PinHeader_1.27mm:PinHeader_1x04_P1.27mm_Vertical" H 1300 4750 50  0001 C CNN
F 3 "" H 1300 4750 50  0001 C CNN
	1    1300 4800
	1    0    0    -1  
$EndComp
Text Label 5700 3950 0    50   ~ 0
SDA_bus
Text Label 6300 4300 0    50   ~ 0
SCL_bus
$Comp
L power:VDD #PWR011
U 1 1 5FE4660E
P 1950 3050
F 0 "#PWR011" H 1950 2900 50  0001 C CNN
F 1 "VDD" H 1965 3223 50  0000 C CNN
F 2 "" H 1950 3050 50  0001 C CNN
F 3 "" H 1950 3050 50  0001 C CNN
	1    1950 3050
	1    0    0    -1  
$EndComp
$Comp
L power:GND #PWR013
U 1 1 5FE46DC8
P 2100 3250
F 0 "#PWR013" H 2100 3000 50  0001 C CNN
F 1 "GND" H 2105 3077 50  0000 C CNN
F 2 "" H 2100 3250 50  0001 C CNN
F 3 "" H 2100 3250 50  0001 C CNN
	1    2100 3250
	1    0    0    -1  
$EndComp
Text Label 1700 3450 0    50   ~ 0
SDA_bus
Text Label 1700 3650 0    50   ~ 0
SCL_bus
$Comp
L power:VDD #PWR012
U 1 1 5FE6170C
P 2050 4400
F 0 "#PWR012" H 2050 4250 50  0001 C CNN
F 1 "VDD" H 2065 4573 50  0000 C CNN
F 2 "" H 2050 4400 50  0001 C CNN
F 3 "" H 2050 4400 50  0001 C CNN
	1    2050 4400
	1    0    0    -1  
$EndComp
$Comp
L power:GND #PWR014
U 1 1 5FE62EA0
P 2200 4600
F 0 "#PWR014" H 2200 4350 50  0001 C CNN
F 1 "GND" H 2205 4427 50  0000 C CNN
F 2 "" H 2200 4600 50  0001 C CNN
F 3 "" H 2200 4600 50  0001 C CNN
	1    2200 4600
	1    0    0    -1  
$EndComp
Text Label 1800 4800 0    50   ~ 0
SDA_bus
Text Label 1800 5000 0    50   ~ 0
SCL_bus
$Comp
L Connector:Conn_01x01_Male J2
U 1 1 5FE6C4BB
P 1050 5650
F 0 "J2" H 1158 5831 50  0000 C CNN
F 1 "Conn_01x01_Male" H 1158 5740 50  0000 C CNN
F 2 "Connector_PinHeader_1.27mm:PinHeader_1x01_P1.27mm_Vertical" H 1050 5650 50  0001 C CNN
F 3 "~" H 1050 5650 50  0001 C CNN
	1    1050 5650
	1    0    0    -1  
$EndComp
Text Label 2050 5650 0    50   ~ 0
Xshut
Wire Wire Line
	1750 1850 3100 1850
Wire Wire Line
	1750 1750 3100 1750
Wire Wire Line
	1750 2050 1900 2050
Wire Wire Line
	1400 3050 1950 3050
Wire Wire Line
	1400 3250 2100 3250
Wire Wire Line
	1400 3450 1700 3450
Wire Wire Line
	1400 3650 1700 3650
Wire Wire Line
	1400 4400 2050 4400
Wire Wire Line
	1400 4600 2200 4600
Wire Wire Line
	1400 4800 1800 4800
Wire Wire Line
	1400 5000 1800 5000
Wire Wire Line
	4900 5200 4900 4700
Wire Wire Line
	4700 4800 4700 4700
Connection ~ 4700 4800
Wire Wire Line
	7450 2400 7450 2200
Wire Wire Line
	5750 2400 7450 2400
Wire Wire Line
	7450 1700 8500 1700
Connection ~ 7450 1700
Wire Wire Line
	7200 4400 7200 4650
Wire Wire Line
	7200 4650 7150 4650
Wire Wire Line
	6750 4650 6600 4650
Wire Wire Line
	6550 3800 6750 3800
Wire Wire Line
	7050 3800 7150 3800
Wire Wire Line
	7150 3800 7150 3900
$Comp
L Device:R R8
U 1 1 6005A156
P 7150 3250
F 0 "R8" H 7220 3296 50  0000 L CNN
F 1 "10k" H 7220 3205 50  0000 L CNN
F 2 "Resistor_SMD:R_0805_2012Metric_Pad1.20x1.40mm_HandSolder" V 7080 3250 50  0001 C CNN
F 3 "~" H 7150 3250 50  0001 C CNN
	1    7150 3250
	-1   0    0    1   
$EndComp
$Comp
L Device:R R9
U 1 1 6005A774
P 7150 5050
F 0 "R9" H 7220 5096 50  0000 L CNN
F 1 "10k" H 7220 5005 50  0000 L CNN
F 2 "Resistor_SMD:R_0805_2012Metric_Pad1.20x1.40mm_HandSolder" V 7080 5050 50  0001 C CNN
F 3 "~" H 7150 5050 50  0001 C CNN
	1    7150 5050
	-1   0    0    1   
$EndComp
Wire Wire Line
	7150 4900 7150 4650
Connection ~ 7150 4650
Wire Wire Line
	7150 4650 7050 4650
Wire Wire Line
	7150 3400 7150 3800
Connection ~ 7150 3800
$Comp
L power:VDD #PWR015
U 1 1 6008449F
P 7150 2900
F 0 "#PWR015" H 7150 2750 50  0001 C CNN
F 1 "VDD" H 7165 3073 50  0000 C CNN
F 2 "" H 7150 2900 50  0001 C CNN
F 3 "" H 7150 2900 50  0001 C CNN
	1    7150 2900
	1    0    0    -1  
$EndComp
Wire Wire Line
	7150 2900 7150 3100
$Comp
L Connector:Conn_01x01_Male J5
U 1 1 600B6712
P 1050 6300
F 0 "J5" H 1158 6481 50  0000 C CNN
F 1 "Conn_01x01_Male" H 1158 6390 50  0000 C CNN
F 2 "Connector_PinHeader_1.27mm:PinHeader_1x01_P1.27mm_Vertical" H 1050 6300 50  0001 C CNN
F 3 "~" H 1050 6300 50  0001 C CNN
	1    1050 6300
	1    0    0    -1  
$EndComp
Text Label 1650 6300 0    50   ~ 0
GPIO
Wire Wire Line
	1250 6300 1650 6300
Wire Wire Line
	5200 4100 5700 4100
Wire Wire Line
	5950 4100 7300 4100
Wire Wire Line
	5600 4200 6300 4200
Wire Wire Line
	5700 3950 5700 4100
Connection ~ 5700 4100
Wire Wire Line
	5700 4100 5950 4100
Wire Wire Line
	6300 4200 6300 4300
Connection ~ 6300 4200
Wire Wire Line
	6300 4200 7300 4200
$Comp
L power:VDD #PWR0101
U 1 1 5FE2FD21
P 5600 5000
F 0 "#PWR0101" H 5600 4850 50  0001 C CNN
F 1 "VDD" H 5615 5173 50  0000 C CNN
F 2 "" H 5600 5000 50  0001 C CNN
F 3 "" H 5600 5000 50  0001 C CNN
	1    5600 5000
	-1   0    0    1   
$EndComp
$Comp
L power:VDD #PWR0102
U 1 1 5FE30541
P 5950 5000
F 0 "#PWR0102" H 5950 4850 50  0001 C CNN
F 1 "VDD" H 5965 5173 50  0000 C CNN
F 2 "" H 5950 5000 50  0001 C CNN
F 3 "" H 5950 5000 50  0001 C CNN
	1    5950 5000
	-1   0    0    1   
$EndComp
$Comp
L power:VDD #PWR0103
U 1 1 5FE30A4F
P 4900 5200
F 0 "#PWR0103" H 4900 5050 50  0001 C CNN
F 1 "VDD" H 4915 5373 50  0000 C CNN
F 2 "" H 4900 5200 50  0001 C CNN
F 3 "" H 4900 5200 50  0001 C CNN
	1    4900 5200
	-1   0    0    1   
$EndComp
$Comp
L power:VDD #PWR0104
U 1 1 5FE30F96
P 7150 5200
F 0 "#PWR0104" H 7150 5050 50  0001 C CNN
F 1 "VDD" H 7165 5373 50  0000 C CNN
F 2 "" H 7150 5200 50  0001 C CNN
F 3 "" H 7150 5200 50  0001 C CNN
	1    7150 5200
	-1   0    0    1   
$EndComp
Wire Wire Line
	1250 5650 2050 5650
Wire Wire Line
	6150 1700 7450 1700
$Comp
L SingleTOFboard-rescue:ConnectorSpecificVL530x_AMA-Connector J1
U 1 1 600F9CF0
P 1650 1850
F 0 "J1" H 1533 2215 50  0000 C CNN
F 1 "ConnectorSpecificVL530x_AMA" H 1533 2124 50  0000 C CNN
F 2 "Connector_PinHeader_1.27mm:PinHeader_1x04_P1.27mm_Vertical" H 1700 1800 50  0001 C CNN
F 3 "" H 1700 1800 50  0001 C CNN
	1    1650 1850
	1    0    0    -1  
$EndComp
Wire Wire Line
	1750 1950 1900 1950
$EndSCHEMATC
